[gd_scene load_steps=5 format=2]

[ext_resource path="res://Assets/Tilesheet/monochrome_transparent.png" type="Texture" id=1]
[ext_resource path="res://Entities/Guns/Street/Car.gd" type="Script" id=2]
[ext_resource path="res://Assets/Soundeffects/can_horn.wav" type="AudioStream" id=3]

[sub_resource type="RectangleShape2D" id=1]
extents = Vector2( 35.5626, 22.8955 )

[node name="Car" type="Node2D"]
script = ExtResource( 2 )

[node name="Sprite" type="Sprite" parent="."]
modulate = Color( 0.780392, 0.00392157, 0.00392157, 1 )
scale = Vector2( 4.8, 3.6 )
texture = ExtResource( 1 )
vframes = 22
hframes = 48
frame = 44

[node name="Hitbox" type="Area2D" parent="."]
collision_layer = 8
collision_mask = 6

[node name="CollisionShape2D" type="CollisionShape2D" parent="Hitbox"]
position = Vector2( 0.841843, 1.12246 )
shape = SubResource( 1 )

[node name="VisibilityNotifier2D" type="VisibilityNotifier2D" parent="."]
position = Vector2( 3.58405, 0.669198 )
scale = Vector2( 2.92421, 1.74686 )

[node name="Horn" type="AudioStreamPlayer2D" parent="."]
stream = ExtResource( 3 )
[connection signal="body_entered" from="Hitbox" to="." method="_on_Area2D_body_entered"]
[connection signal="screen_exited" from="VisibilityNotifier2D" to="." method="_on_VisibilityNotifier2D_screen_exited"]
