[gd_scene load_steps=4 format=2]

[ext_resource path="res://UI/Life/Life.gd" type="Script" id=1]
[ext_resource path="res://UI/Life/Heart/Heart.tscn" type="PackedScene" id=2]

[sub_resource type="StyleBoxFlat" id=1]
bg_color = Color( 0, 0, 0, 0 )

[node name="Life" type="Control"]
anchor_right = 1.0
anchor_bottom = 1.0
script = ExtResource( 1 )
__meta__ = {
"_edit_use_anchors_": false
}
heart = ExtResource( 2 )

[node name="Panel" type="Panel" parent="."]
margin_right = 40.0
margin_bottom = 40.0
custom_styles/panel = SubResource( 1 )

[node name="Hearts" type="HBoxContainer" parent="."]
margin_right = 40.0
margin_bottom = 40.0
__meta__ = {
"_edit_use_anchors_": false
}
