[gd_scene load_steps=4 format=2]

[ext_resource path="res://Assets/Tilesheet/monochrome_transparent.png" type="Texture" id=1]
[ext_resource path="res://Entities/Guns/Axe/Axe.gd" type="Script" id=2]
[ext_resource path="res://Entities/Guns/Axe/Slash.tscn" type="PackedScene" id=3]

[node name="Axe" type="Node2D" groups=[
"projectile_gun",
]]
scale = Vector2( 4, 4 )
script = ExtResource( 2 )
slash_scene = ExtResource( 3 )

[node name="Sprite" type="Sprite" parent="."]
modulate = Color( 0.741176, 0.741176, 0.741176, 1 )
position = Vector2( 14, 0 )
texture = ExtResource( 1 )
vframes = 22
hframes = 48
frame = 375

[node name="Cooldown" type="Timer" parent="."]
one_shot = true

[node name="Tween" type="Tween" parent="."]
[connection signal="tween_all_completed" from="Tween" to="." method="_on_Tween_tween_all_completed"]
