[gd_scene load_steps=4 format=2]

[ext_resource path="res://Assets/Tilesheet/monochrome_transparent.png" type="Texture" id=1]
[ext_resource path="res://Entities/Guns/Fish/Fish.gd" type="Script" id=2]

[sub_resource type="CircleShape2D" id=1]

[node name="Fish" type="Node2D"]
scale = Vector2( 4, 4 )
script = ExtResource( 2 )

[node name="Sprite" type="Sprite" parent="."]
modulate = Color( 0.6, 0.813333, 1, 1 )
position = Vector2( 10, 0 )
rotation = -0.523599
scale = Vector2( 0.7, 0.7 )
texture = ExtResource( 1 )
offset = Vector2( 3, -3.5 )
vframes = 22
hframes = 48
frame = 849

[node name="Hitbox" type="Area2D" parent="."]
position = Vector2( 12, 0 )
monitorable = false
collision_layer = 0
collision_mask = 2

[node name="Area" type="CollisionShape2D" parent="Hitbox"]
shape = SubResource( 1 )
disabled = true

[node name="Cooldown" type="Timer" parent="."]
process_mode = 0
wait_time = 0.2
one_shot = true

[node name="Tween" type="Tween" parent="."]

[node name="Fish_Reset" type="Timer" parent="."]
process_mode = 0
wait_time = 3.0
one_shot = true
[connection signal="body_entered" from="Hitbox" to="." method="_on_Hitbox_body_entered"]
[connection signal="timeout" from="Cooldown" to="." method="_on_Cooldown_timeout"]
[connection signal="timeout" from="Fish_Reset" to="." method="_on_Fish_Reset_timeout"]
