[gd_scene load_steps=3 format=2]

[ext_resource path="res://Entities/Guns/Torch/Heat.gd" type="Script" id=1]
[ext_resource path="res://Assets/Tilesheet/monochrome_transparent.png" type="Texture" id=2]

[node name="Heat" type="Node2D"]
script = ExtResource( 1 )

[node name="Burn_Proc" type="Timer" parent="."]
process_mode = 0
wait_time = 0.5

[node name="Sprite" type="Sprite" parent="."]
scale = Vector2( 7, 6 )
texture = ExtResource( 2 )
vframes = 22
hframes = 48
frame = 495
[connection signal="timeout" from="Burn_Proc" to="." method="_on_Burn_Proc_timeout"]
