[gd_scene load_steps=5 format=2]

[ext_resource path="res://Assets/Tilesheet/colored_packed.png" type="Texture" id=1]
[ext_resource path="res://Assets/Fonts/phatone/Phatone-Regular.otf" type="DynamicFontData" id=2]

[sub_resource type="GDScript" id=1]
script/source = "extends TextureRect

var tile_coords := Vector2.ZERO


func _ready():
	pass


func _process(_delta):
	var pos := get_local_mouse_position()

	if pos.x < 0 or pos.x >= rect_size.x or pos.y < 0 or pos.y >= rect_size.y:
		$Label.hide()
		return

	# warning-ignore:integer_division
	tile_coords = Vector2(int(pos.x) / 16, int(pos.y / 16))

	$Label.show()
	$Label.text = \" Frame: %d \" % (tile_coords.x + 48 * tile_coords.y)
	$Label.rect_position = 16 * (tile_coords + Vector2(1, 1))

	update()


func _draw():
	draw_rect(Rect2(16 * tile_coords, Vector2(16, 16)), Color.cyan, false)
"

[sub_resource type="DynamicFont" id=2]
font_data = ExtResource( 2 )

[node name="Sheet" type="Control"]
anchor_right = 1.0
anchor_bottom = 1.0
__meta__ = {
"_edit_use_anchors_": false
}

[node name="TextureRect" type="TextureRect" parent="."]
anchor_left = 0.5
anchor_top = 0.5
anchor_right = 0.5
anchor_bottom = 0.5
margin_left = -384.0
margin_top = -176.0
margin_right = 384.0
margin_bottom = 176.0
texture = ExtResource( 1 )
stretch_mode = 4
script = SubResource( 1 )
__meta__ = {
"_edit_use_anchors_": false
}

[node name="Label" type="Label" parent="TextureRect"]
margin_left = -256.0
margin_top = -184.0
margin_right = -112.0
margin_bottom = -144.0
custom_fonts/font = SubResource( 2 )
text = " Frame: 0 "

[node name="ColorRect" type="ColorRect" parent="TextureRect/Label"]
show_behind_parent = true
anchor_right = 1.0
anchor_bottom = 1.0
color = Color( 0, 0, 0, 0.784314 )
__meta__ = {
"_edit_use_anchors_": false
}
