[gd_scene load_steps=4 format=2]

[ext_resource path="res://Map/Base_Room/Base_Room.tscn" type="PackedScene" id=1]
[ext_resource path="res://Entities/Guns/Akimbo/Akimbo.tscn" type="PackedScene" id=2]
[ext_resource path="res://Entities/Gun_Pickup/Gun_Pickup.tscn" type="PackedScene" id=3]

[node name="Base_Room" instance=ExtResource( 1 )]

[node name="Walls" parent="." index="0"]
tile_data = PoolIntArray( 0, 11, 0, 1, 1, 0, 2, 1, 0, 3, 1, 0, 4, 1, 0, 5, 1, 0, 6, 1, 0, 7, 1, 0, 8, 1, 0, 9, 1, 0, 10, 1, 0, 11, 1, 0, 12, 1, 0, 13, 1, 0, 14, 1, 0, 15, 1, 0, 16, 1, 0, 17, 1, 0, 18, 1, 0, 19, 4, 0, 65536, 8, 0, 65555, 5, 0, 131072, 8, 0, 131091, 5, 0, 196608, 8, 0, 196627, 5, 0, 262144, 8, 0, 262163, 5, 0, 327680, 8, 0, 327699, 5, 0, 393216, 8, 0, 393235, 5, 0, 458752, 8, 0, 458771, 5, 0, 524288, 8, 0, 524307, 5, 0, 589824, 8, 0, 589843, 5, 0, 655360, 10, 0, 655361, 9, 0, 655362, 9, 0, 655363, 9, 0, 655364, 9, 0, 655365, 9, 0, 655366, 9, 0, 655367, 9, 0, 655368, 9, 0, 655369, 9, 0, 655370, 9, 0, 655371, 9, 0, 655372, 9, 0, 655373, 9, 0, 655374, 9, 0, 655375, 9, 0, 655376, 9, 0, 655377, 9, 0, 655378, 9, 0, 655379, 6, 0 )

[node name="Gun_Pickup" parent="." index="2" instance=ExtResource( 3 )]
position = Vector2( 620.484, 142.619 )
gun_scene = ExtResource( 2 )
[connection signal="gun_picked" from="Gun_Pickup" to="." method="complete_room"]
